---
http_interactions:
- request:
    method: post
    uri: http://localhost:8983/search?wt=ruby
    body:
      encoding: US-ASCII
      string: q=shasum%3A00972c5123877961056b21aea4177d0dc69c7318&defType=lucene
    headers:
      Content-Type:
      - application/x-www-form-urlencoded; charset=UTF-8
  response:
    status:
      code: 200
      message: OK
    headers:
      Server:
      - Winstone Servlet Engine v0.9.10
      Content-Type:
      - text/plain;charset=UTF-8
      Connection:
      - Close
      Date:
      - Mon, 16 Sep 2013 21:26:17 GMT
      X-Powered-By:
      - Servlet/2.5 (Winstone/0.9.10)
    body:
      encoding: UTF-8
      string: |
        {'responseHeader'=>{'status'=>0,'QTime'=>2,'params'=>{'q'=>'shasum:00972c5123877961056b21aea4177d0dc69c7318','wt'=>'ruby','defType'=>'lucene'}},'response'=>{'numFound'=>1,'start'=>0,'docs'=>[{'license'=>'© Blackwell Verlag GmbH','shasum'=>'00972c5123877961056b21aea4177d0dc69c7318','doi'=>'10.1111/j.1439-0310.2008.01576.x','authors'=>'Carlos A. Botero, Andrew E. Mudge, Amanda M. Koltz, Wesley M. Hochachka, Sandra L. Vehrencamp','title'=>'How Reliable are the Methods for Estimating Repertoire Size?','journal'=>'Ethology','year'=>'2008','volume'=>'114','pages'=>'1227-1238'}]},'facet_counts'=>{'facet_queries'=>{'year:[* TO 1799]'=>0,'year:[1800 TO 1809]'=>0,'year:[1810 TO 1819]'=>0,'year:[1820 TO 1829]'=>0,'year:[1830 TO 1839]'=>0,'year:[1840 TO 1849]'=>0,'year:[1850 TO 1859]'=>0,'year:[1860 TO 1869]'=>0,'year:[1870 TO 1879]'=>0,'year:[1880 TO 1889]'=>0,'year:[1890 TO 1899]'=>0,'year:[1900 TO 1909]'=>0,'year:[1910 TO 1919]'=>0,'year:[1920 TO 1929]'=>0,'year:[1930 TO 1939]'=>0,'year:[1940 TO 1949]'=>0,'year:[1950 TO 1959]'=>0,'year:[1960 TO 1969]'=>0,'year:[1970 TO 1979]'=>0,'year:[1980 TO 1989]'=>0,'year:[1990 TO 1999]'=>0,'year:[2000 TO 2009]'=>1,'year:[2010 TO *]'=>0},'facet_fields'=>{'authors_facet'=>['Amanda M. Koltz',1,'Andrew E. Mudge',1,'Carlos A. Botero',1,'Sandra L. Vehrencamp',1,'Wesley M. Hochachka',1,'. N. Mouton',0,'A Guo',0,'A Pickles',0,'A. A. Bailey',0,'A. A. Fienberg',0],'journal_facet'=>['Ethology',1,'Genes, Brain and Behavior',0]},'facet_dates'=>{},'facet_ranges'=>{}}}
    http_version: 
  recorded_at: Mon, 16 Sep 2013 21:26:17 GMT
- request:
    method: get
    uri: http://api.mendeley.com/oapi/documents/search/title:How+Reliable+are+the+Methods+for+Estimating+Repertoire+Size%3F/?consumer_key=5ba3606d28aa1be94e9c58502b90a49c04dc17289
    body:
      encoding: US-ASCII
      string: ''
    headers:
      Accept-Encoding:
      - gzip;q=1.0,deflate;q=0.6,identity;q=0.3
      Accept:
      - '*/*'
      User-Agent:
      - Ruby
  response:
    status:
      code: 200
      message: OK
    headers:
      Date:
      - Mon, 16 Sep 2013 21:26:17 GMT
      Server:
      - Apache
      Pragma:
      - no-cache
      Expires:
      - Mon, 01 Jan 1970 00:00:00 UTC
      Cache-Control:
      - no-cache, no-store, max-age=0, s-maxage=0, must-revalidate, pre-check=0, post-check=0
      Vary:
      - Cookie
      P3p:
      - CP="Mendeley has a Privacy Policy available from http://www.mendeley.com/privacy/"
      Access-Control-Allow-Origin:
      - http://api.mendeley.com
      X-Ratelimit-Remaining:
      - '4999'
      Transfer-Encoding:
      - chunked
      Content-Type:
      - application/json
    body:
      encoding: UTF-8
      string: '{"documents":[{"uuid":"ffc1f600-c78a-11df-b837-0024e8453de6","title":"How
        reliable are the methods for estimating repertoire size?","publication_outlet":"Ethology
        formerly Zeitschrift fur Tierpsychologie","year":2008,"mendeley_url":"http:\/\/www.mendeley.com\/research\/reliable-methods-estimating-repertoire-size-1\/","doi":"10.1111\/j.1439-0310.2008.01576.x","authors":[{"forename":"Carlos
        A","surname":"Botero"},{"forename":"Andrew E","surname":"Mudge"},{"forename":"Amanda
        M","surname":"Koltz"},{"forename":"Wesley M","surname":"Hochachka"},{"forename":"Sandra
        L","surname":"Vehrencamp"}]},{"uuid":"a1918630-3ac6-11e1-a0e9-0024e8453de6","title":"How
        to understand strategies","publication_outlet":"Competitive engineering a
        handbook for systems engineering requirements engineering and software engineering
        using planguage","year":2005,"mendeley_url":"http:\/\/www.mendeley.com\/research\/understand-strategies\/","doi":null,"authors":[{"forename":"Impact","surname":"Estimate"},{"forename":"Scale","surname":"Impact"},{"forename":"Scale","surname":"Uncertainty"},{"forename":"Incremental
        Scale","surname":"Impact"},{"forename":"Percentage","surname":"Impact"},{"forename":"Percentage","surname":"Uncertainty"},{"forename":"Safety","surname":"Factor"},{"forename":"Safety","surname":"Margin"},{"forename":"Safety","surname":"Deviation"},{"forename":"Side","surname":"Effect"}]},{"uuid":"60f7a730-1d35-11e0-a67b-0024e8453de6","title":"How
        to do a Meta-Analysis","publication_outlet":"The British journal of mathematical
        and statistical psychology","year":2010,"mendeley_url":"http:\/\/www.mendeley.com\/catalog\/meta-analysis-21\/","doi":"10.1348\/000711010X502733","authors":[{"forename":"Andy
        P","surname":"Field"},{"forename":"Raphael","surname":"Gillett"}]},{"uuid":"26b1e2c0-ebf2-11e0-9df2-0024e8453de6","title":"How
        many people are malnourished?","publication_outlet":"Annual Review of Nutrition","year":2011,"mendeley_url":"http:\/\/www.mendeley.com\/research\/people-malnourished\/","doi":null,"authors":[{"forename":"Peter","surname":"Svedberg"}]},{"uuid":"0ebb3210-5936-11e0-a61a-0024e8453de6","title":"How
        Many Interviews Are Enough?","publication_outlet":"Field Methods","year":2006,"mendeley_url":"http:\/\/www.mendeley.com\/research\/interviews-enough\/","doi":"10.1177\/1525822x05279903","authors":[{"forename":"Greg","surname":"Guest"},{"forename":"Arwen","surname":"Bunce"},{"forename":"Laura","surname":"Johnson"}]},{"uuid":"61be9bac-0f6f-4e33-9dc8-f4cf1e6b4b45","title":"How
        to do a meta-analysis","publication_outlet":"British Journal of Mathematical
        and Statistical Psychology","year":2010,"mendeley_url":"http:\/\/www.mendeley.com\/research\/metaanalysis-34\/","doi":"10.1348\/000711010x502733","authors":[{"forename":"Andy
        P","surname":"Field"},{"forename":"Raphael","surname":"Gillett"}]},{"uuid":"65c4f9c3-2e66-4e45-9aa0-c3888c4c7f6d","title":"How
        reliable are dung counts for estimating elephant numbers?","publication_outlet":"African
        Journal of Ecology","year":2001,"mendeley_url":"http:\/\/www.mendeley.com\/research\/reliable-dung-counts-estimating-elephant-numbers-6\/","doi":null,"authors":[{"forename":"R
        F W","surname":"Barnes"}]},{"uuid":"6f94c516-668f-480f-842a-c0156bb60f1f","title":"How
        reliable are dung counts for estimating elephant numbers?","publication_outlet":"African
        Journal of Ecology","year":2001,"mendeley_url":"http:\/\/www.mendeley.com\/research\/reliable-dung-counts-estimating-elephant-numbers-5\/","doi":null,"authors":[{"forename":"R
        F W","surname":"Barnes"}]},{"uuid":"b835312d-479c-44f9-86bc-0b165a16019a","title":"How
        reliable are dung counts for estimating elephant numbers?","publication_outlet":"African
        Journal of Ecology","year":2001,"mendeley_url":"http:\/\/www.mendeley.com\/research\/reliable-dung-counts-estimating-elephant-numbers-3\/","doi":null,"authors":[{"forename":"R
        F W","surname":"Barnes"}]},{"uuid":"b0d0d1f6-7e5f-4d88-9b66-8dc985d66413","title":"How
        reliable are dung counts for estimating elephant numbers?","publication_outlet":"African
        Journal of Ecology","year":2001,"mendeley_url":"http:\/\/www.mendeley.com\/research\/reliable-dung-counts-estimating-elephant-numbers-4\/","doi":null,"authors":[{"forename":"R
        F W","surname":"Barnes"}]},{"uuid":"02b71af0-6d06-11df-a2b2-0026b95e3eb7","title":"How
        to use molecular marker data to measure evolutionary parameters in wild populations.","publication_outlet":"Molecular
        Ecology","year":2005,"mendeley_url":"http:\/\/www.mendeley.com\/catalog\/molecular-marker-data-measure-evolutionary-parameters-wild-populations-2\/","doi":null,"authors":[{"forename":"Dany","surname":"Garant"},{"forename":"Loeske
        E B","surname":"Kruuk"}]},{"uuid":"3fbb9c10-56d8-11e1-86d1-0024e8453de6","title":"Impact
        Estimation: How to understand strategies","publication_outlet":"Competitive
        engineering a handbook for systems engineering requirements engineering and
        software engineering using planguage","year":2005,"mendeley_url":"http:\/\/www.mendeley.com\/research\/impact-estimation-understand-strategies\/","doi":null,"authors":[{"forename":"Tom","surname":"Gilb"}]},{"uuid":"29994570-6d0c-11df-a2b2-0026b95e3eb7","title":"How
        reliable are dung counts for estimating elephant numbers?","publication_outlet":"African
        Journal of Ecology","year":2001,"mendeley_url":"http:\/\/www.mendeley.com\/catalog\/reliable-dung-counts-estimating-elephant-numbers-2\/","doi":"10.1046\/j.1365-2028.2001.00266.x","authors":[{"forename":"R
        F W","surname":"Barnes"}]},{"uuid":"e1f8f0e0-6d00-11df-afb8-0026b95d30b2","title":"How
        reliable is an undetectable viral load?","publication_outlet":"HIV Medicine","year":2009,"mendeley_url":"http:\/\/www.mendeley.com\/research\/reliable-undetectable-viral-load\/","doi":null,"authors":[{"forename":"Christophe","surname":"Combescure"},{"forename":"N","surname":"Vallier"},{"forename":"B","surname":"Ledergerber"},{"forename":"M","surname":"Cavassini"},{"forename":"H","surname":"Furrer"},{"forename":"A","surname":"Rauch"},{"forename":"M","surname":"Battegay"},{"forename":"E","surname":"Bernasconi"},{"forename":"P","surname":"Vernazza"},{"forename":"B","surname":"Hirschel"}]},{"uuid":"fddd5b80-6d09-11df-936c-0026b95e484c","title":"How
        many mistakes, how to find them.","publication_outlet":"Clinical Chemistry","year":1997,"mendeley_url":"http:\/\/www.mendeley.com\/research\/mistakes-find-them\/","doi":null,"authors":[{"forename":"A
        B","surname":"Blase"}]},{"uuid":"91819210-c170-11df-833d-0024e8453de6","title":"How
        many birds are there ?","publication_outlet":"Population English Edition","year":1997,"mendeley_url":"http:\/\/www.mendeley.com\/catalog\/birds-1\/","doi":null,"authors":[{"forename":"Kevin
        J","surname":"Gaston"},{"forename":"T I M M","surname":"Blackburn"}]},{"uuid":"4c152cd0-cc8f-11df-922b-0024e8453de6","title":"How
        to aspirate the pericardium.","publication_outlet":"British Journal of Hospital
        Medicine","year":1990,"mendeley_url":"http:\/\/www.mendeley.com\/research\/aspirate-pericardium\/","doi":null,"authors":[{"forename":"T","surname":"Treasure"},{"forename":"L","surname":"Cotter"}]},{"uuid":"d70e40a0-6cff-11df-a2b2-0026b95e3eb7","title":"How
        to study proteins by circular dichroism","publication_outlet":"Biochimica
        et Biophysica Acta","year":2005,"mendeley_url":"http:\/\/www.mendeley.com\/catalog\/study-proteins-circular-dichroism-1\/","doi":null,"authors":[{"forename":"Sharon
        M","surname":"Kelly"},{"forename":"Thomas J","surname":"Jess"},{"forename":"Nicholas
        C","surname":"Price"}]},{"uuid":"9d5d8f30-6d06-11df-a474-0026b95e3e23","title":"Internationalizing
        the Broselow tape: how reliable is weight estimation in Indian children.","publication_outlet":"Academic
        emergency medicine official journal of the Society for Academic Emergency
        Medicine","year":2008,"mendeley_url":"http:\/\/www.mendeley.com\/research\/internationalizing-broselow-tape-reliable-weight-estimation-indian-children\/","doi":null,"authors":[{"forename":"Naresh","surname":"Ramarajan"},{"forename":"Rajesh","surname":"Krishnamoorthi"},{"forename":"Matthew","surname":"Strehlow"},{"forename":"James","surname":"Quinn"},{"forename":"Swaminatha
        V","surname":"Mahadevan"}]},{"uuid":"bf4a7b00-c54c-11df-833d-0024e8453de6","title":"How
        to be less invasive.","publication_outlet":"The American Journal of Medicine","year":1979,"mendeley_url":"http:\/\/www.mendeley.com\/research\/less-invasive\/","doi":null,"authors":[{"forename":"A
        C","surname":"Powles"},{"forename":"E J","surname":"Campbell"}]}],"total_results":4564606,"total_pages":228231,"current_page":0,"items_per_page":20}'
    http_version: 
  recorded_at: Mon, 16 Sep 2013 21:26:18 GMT
recorded_with: VCR 2.5.0
